﻿{
    "users": [
        {
            "id": 0,
            "name": "Test Name 1",
            "surname": "Surname1",
            "email": "surname1@email",
            "company": "Test Company 1",
            "address": {
                "country": "Poland",
                "street": "Test Street 1",
                "number": "Test Number",
                "code": "Test Code 1"
            }
        },
        {
            "id": 1,
            "name": "Test Name 2",
            "surname": "Surname2",
            "email": "surname2@email",
            "company": "Test Company 2",
            "address": {
                "country": "Poland",
                "street": "Test Street 2",
                "number": "Test Number",
                "code": "Test Code 2"
            }
        }
    ]
}